<mxfile host="app.diagrams.net" modified="2021-07-23T10:01:22.693Z" agent="5.0 (X11; Linux x86_64) AppleWebKit/537.36 (KHTML, like Gecko) Chrome/92.0.4515.107 Safari/537.36" etag="5jxDOA4kZmWEMLWtnhyb" version="14.9.2" type="gitlab">
  <diagram id="6a731a19-8d31-9384-78a2-239565b7b9f0" name="Page-1">
    <mxGraphModel dx="2320" dy="1417" grid="1" gridSize="10" guides="1" tooltips="1" connect="1" arrows="1" fold="1" page="1" pageScale="1" pageWidth="1169" pageHeight="827" background="none" math="0" shadow="0">
      <root>
        <mxCell id="0" />
        <mxCell id="1" parent="0" />
        <mxCell id="3" value="Puis-je vous &lt;br&gt;renseigner ?" style="shape=mxgraph.flowchart.data;strokeWidth=2;gradientColor=none;gradientDirection=north;fontStyle=0;html=1;" parent="1" vertex="1">
          <mxGeometry x="540" y="120" width="159" height="80" as="geometry" />
        </mxCell>
        <mxCell id="6" value="" style="shape=mxgraph.flowchart.decision;strokeWidth=2;gradientColor=none;gradientDirection=north;fontStyle=0;html=1;" parent="1" vertex="1">
          <mxGeometry x="585" y="240" width="64" height="57" as="geometry" />
        </mxCell>
        <mxCell id="8" style="fontStyle=1;strokeColor=#003366;strokeWidth=1;html=1;entryX=0.5;entryY=0;entryDx=0;entryDy=0;entryPerimeter=0;" parent="1" source="3" target="6" edge="1">
          <mxGeometry relative="1" as="geometry">
            <mxPoint x="619.5" y="240.0000000000001" as="targetPoint" />
          </mxGeometry>
        </mxCell>
        <mxCell id="vP64vqgb3mRYIn6DXvBJ-57" value="Bonne journée !" style="shape=mxgraph.flowchart.data;strokeWidth=2;gradientColor=none;gradientDirection=north;fontStyle=0;html=1;" vertex="1" parent="1">
          <mxGeometry x="977.5" y="217" width="159" height="80" as="geometry" />
        </mxCell>
        <mxCell id="vP64vqgb3mRYIn6DXvBJ-59" value="non / *" style="endArrow=classic;html=1;exitX=1;exitY=0.5;exitDx=0;exitDy=0;exitPerimeter=0;entryX=0;entryY=0.5;entryDx=0;entryDy=0;" edge="1" parent="1" source="6" target="vP64vqgb3mRYIn6DXvBJ-86">
          <mxGeometry x="-0.5049" y="19" width="50" height="50" relative="1" as="geometry">
            <mxPoint x="480" y="310" as="sourcePoint" />
            <mxPoint x="820" y="269" as="targetPoint" />
            <mxPoint as="offset" />
          </mxGeometry>
        </mxCell>
        <mxCell id="vP64vqgb3mRYIn6DXvBJ-60" value="Préférez-vous obtenir &lt;br&gt;des informations sur les &lt;br&gt;ateliers, ou échanger &lt;br&gt;avec une personne ?" style="shape=mxgraph.flowchart.data;strokeWidth=2;gradientColor=none;gradientDirection=north;fontStyle=0;html=1;" vertex="1" parent="1">
          <mxGeometry x="500" y="350" width="181.5" height="80" as="geometry" />
        </mxCell>
        <mxCell id="vP64vqgb3mRYIn6DXvBJ-61" value="oui, peut-être, possible, plait" style="endArrow=classic;html=1;exitX=0.5;exitY=1;exitDx=0;exitDy=0;exitPerimeter=0;entryX=0.626;entryY=0;entryDx=0;entryDy=0;entryPerimeter=0;" edge="1" parent="1" source="6" target="vP64vqgb3mRYIn6DXvBJ-60">
          <mxGeometry x="0.023" y="-19" width="50" height="50" relative="1" as="geometry">
            <mxPoint x="390" y="310" as="sourcePoint" />
            <mxPoint x="440" y="260" as="targetPoint" />
            <mxPoint as="offset" />
          </mxGeometry>
        </mxCell>
        <mxCell id="vP64vqgb3mRYIn6DXvBJ-62" value="" style="endArrow=classic;html=1;exitX=0.5;exitY=1;exitDx=0;exitDy=0;exitPerimeter=0;entryX=0.5;entryY=0;entryDx=0;entryDy=0;entryPerimeter=0;" edge="1" parent="1" source="vP64vqgb3mRYIn6DXvBJ-60" target="vP64vqgb3mRYIn6DXvBJ-63">
          <mxGeometry width="50" height="50" relative="1" as="geometry">
            <mxPoint x="380" y="550" as="sourcePoint" />
            <mxPoint x="144" y="400" as="targetPoint" />
          </mxGeometry>
        </mxCell>
        <mxCell id="vP64vqgb3mRYIn6DXvBJ-63" value="" style="shape=mxgraph.flowchart.decision;strokeWidth=2;gradientColor=none;gradientDirection=north;fontStyle=0;html=1;" vertex="1" parent="1">
          <mxGeometry x="553" y="480" width="64" height="57" as="geometry" />
        </mxCell>
        <mxCell id="vP64vqgb3mRYIn6DXvBJ-65" value="" style="endArrow=classic;html=1;entryX=0.552;entryY=-0.021;entryDx=0;entryDy=0;entryPerimeter=0;exitX=0.5;exitY=1;exitDx=0;exitDy=0;exitPerimeter=0;" edge="1" parent="1" source="vP64vqgb3mRYIn6DXvBJ-63" target="vP64vqgb3mRYIn6DXvBJ-71">
          <mxGeometry width="50" height="50" relative="1" as="geometry">
            <mxPoint x="110" y="429" as="sourcePoint" />
            <mxPoint x="60" y="640" as="targetPoint" />
          </mxGeometry>
        </mxCell>
        <mxCell id="vP64vqgb3mRYIn6DXvBJ-66" value="information, atelier" style="edgeLabel;html=1;align=center;verticalAlign=middle;resizable=0;points=[];" vertex="1" connectable="0" parent="vP64vqgb3mRYIn6DXvBJ-65">
          <mxGeometry x="-0.1701" y="-3" relative="1" as="geometry">
            <mxPoint x="1" as="offset" />
          </mxGeometry>
        </mxCell>
        <mxCell id="vP64vqgb3mRYIn6DXvBJ-67" value="" style="endArrow=classic;html=1;exitX=0;exitY=0.5;exitDx=0;exitDy=0;exitPerimeter=0;entryX=0.905;entryY=0.5;entryDx=0;entryDy=0;entryPerimeter=0;" edge="1" parent="1" source="vP64vqgb3mRYIn6DXvBJ-63" target="vP64vqgb3mRYIn6DXvBJ-73">
          <mxGeometry width="50" height="50" relative="1" as="geometry">
            <mxPoint x="380" y="380" as="sourcePoint" />
            <mxPoint x="400" y="640" as="targetPoint" />
          </mxGeometry>
        </mxCell>
        <mxCell id="vP64vqgb3mRYIn6DXvBJ-68" value="parler, quelqu&#39;un, personne" style="edgeLabel;html=1;align=center;verticalAlign=middle;resizable=0;points=[];" vertex="1" connectable="0" parent="vP64vqgb3mRYIn6DXvBJ-67">
          <mxGeometry x="-0.2029" y="3" relative="1" as="geometry">
            <mxPoint x="-1" as="offset" />
          </mxGeometry>
        </mxCell>
        <mxCell id="vP64vqgb3mRYIn6DXvBJ-69" value="" style="endArrow=classic;html=1;exitX=1;exitY=0.5;exitDx=0;exitDy=0;exitPerimeter=0;entryX=0;entryY=0.5;entryDx=0;entryDy=0;" edge="1" parent="1" source="vP64vqgb3mRYIn6DXvBJ-63" target="vP64vqgb3mRYIn6DXvBJ-87">
          <mxGeometry width="50" height="50" relative="1" as="geometry">
            <mxPoint x="380" y="380" as="sourcePoint" />
            <mxPoint x="770" y="509" as="targetPoint" />
          </mxGeometry>
        </mxCell>
        <mxCell id="vP64vqgb3mRYIn6DXvBJ-70" value="rien, autre, aucun" style="edgeLabel;html=1;align=center;verticalAlign=middle;resizable=0;points=[];" vertex="1" connectable="0" parent="vP64vqgb3mRYIn6DXvBJ-69">
          <mxGeometry x="0.2387" y="5" relative="1" as="geometry">
            <mxPoint as="offset" />
          </mxGeometry>
        </mxCell>
        <mxCell id="vP64vqgb3mRYIn6DXvBJ-71" value="Voulez-vous en savoir &lt;br&gt;plus sur l&#39;imprimante 3D, &lt;br&gt;la voiture autonome, &lt;br&gt;ou sur moi-même ?" style="shape=mxgraph.flowchart.data;strokeWidth=2;gradientColor=none;gradientDirection=north;fontStyle=0;html=1;" vertex="1" parent="1">
          <mxGeometry x="460" y="640" width="210" height="80" as="geometry" />
        </mxCell>
        <mxCell id="vP64vqgb3mRYIn6DXvBJ-73" value="Demandez Aurélien !" style="shape=mxgraph.flowchart.data;strokeWidth=2;gradientColor=none;gradientDirection=north;fontStyle=0;html=1;" vertex="1" parent="1">
          <mxGeometry x="140" y="468.5" width="210" height="80" as="geometry" />
        </mxCell>
        <mxCell id="vP64vqgb3mRYIn6DXvBJ-76" value="" style="shape=mxgraph.flowchart.decision;strokeWidth=2;gradientColor=none;gradientDirection=north;fontStyle=0;html=1;" vertex="1" parent="1">
          <mxGeometry x="515" y="780" width="64" height="57" as="geometry" />
        </mxCell>
        <mxCell id="vP64vqgb3mRYIn6DXvBJ-77" value="" style="endArrow=classic;html=1;exitX=0.414;exitY=0.994;exitDx=0;exitDy=0;exitPerimeter=0;entryX=0.5;entryY=0;entryDx=0;entryDy=0;entryPerimeter=0;" edge="1" parent="1" source="vP64vqgb3mRYIn6DXvBJ-71" target="vP64vqgb3mRYIn6DXvBJ-76">
          <mxGeometry width="50" height="50" relative="1" as="geometry">
            <mxPoint x="60" y="590" as="sourcePoint" />
            <mxPoint x="110" y="540" as="targetPoint" />
          </mxGeometry>
        </mxCell>
        <mxCell id="vP64vqgb3mRYIn6DXvBJ-78" value="Pour imprimer un objet en 3 dimensions, il &lt;br&gt;faut d&#39;abord en faire la conception avec un &lt;br&gt;logiciel comme Blender ou FreeCAD. Il faut ensuite &lt;br&gt;faire appel à un second programme, qui va avoir la &lt;br&gt;charge de définir le chemin que va parcourir la &lt;br&gt;tête d&#39;impression sur les trois axes X, Y et Z. &lt;br&gt;Cette suite d&#39;exécution s&#39;appelle le Gcode." style="shape=mxgraph.flowchart.data;strokeWidth=2;gradientColor=none;gradientDirection=north;fontStyle=0;html=1;" vertex="1" parent="1">
          <mxGeometry x="30" y="753.5" width="400" height="110" as="geometry" />
        </mxCell>
        <mxCell id="vP64vqgb3mRYIn6DXvBJ-93" style="edgeStyle=orthogonalEdgeStyle;rounded=0;orthogonalLoop=1;jettySize=auto;html=1;fontColor=#FFF7F7;" edge="1" parent="1" source="vP64vqgb3mRYIn6DXvBJ-79" target="vP64vqgb3mRYIn6DXvBJ-94">
          <mxGeometry relative="1" as="geometry">
            <mxPoint x="511.5" y="1130" as="targetPoint" />
          </mxGeometry>
        </mxCell>
        <mxCell id="vP64vqgb3mRYIn6DXvBJ-79" value="Ce projet a été réalisé avec une carte de &lt;br&gt;prototypage appelée Arduino. Ce type &lt;br&gt;de matériel permet d&#39;employer le code &lt;br&gt;informatique pour piloter bon nombre de &lt;br&gt;capteurs, comme les capteurs infrarouge qui &lt;br&gt;permettent de suivre la ligne noires au sol." style="shape=mxgraph.flowchart.data;strokeWidth=2;gradientColor=none;gradientDirection=north;fontStyle=0;html=1;" vertex="1" parent="1">
          <mxGeometry x="341.5" y="940" width="340" height="110" as="geometry" />
        </mxCell>
        <mxCell id="vP64vqgb3mRYIn6DXvBJ-97" style="edgeStyle=orthogonalEdgeStyle;rounded=0;orthogonalLoop=1;jettySize=auto;html=1;entryX=0.5;entryY=0;entryDx=0;entryDy=0;fontColor=#FFF7F7;" edge="1" parent="1" source="vP64vqgb3mRYIn6DXvBJ-80" target="vP64vqgb3mRYIn6DXvBJ-96">
          <mxGeometry relative="1" as="geometry" />
        </mxCell>
        <mxCell id="vP64vqgb3mRYIn6DXvBJ-80" value="J&#39;ai été réalisé avec les dernières technologies &lt;br&gt;apportées par les standards&amp;nbsp;du web, &lt;br&gt;comme la synthèse vocale, la reconnaissance &lt;br&gt;vocale, ou la gestion des sockets." style="shape=mxgraph.flowchart.data;strokeWidth=2;gradientColor=none;gradientDirection=north;fontStyle=0;html=1;" vertex="1" parent="1">
          <mxGeometry x="765" y="768.5" width="365" height="91.5" as="geometry" />
        </mxCell>
        <mxCell id="vP64vqgb3mRYIn6DXvBJ-81" value="imprimante, 3D" style="endArrow=classic;html=1;exitX=0;exitY=0.5;exitDx=0;exitDy=0;exitPerimeter=0;entryX=0.905;entryY=0.5;entryDx=0;entryDy=0;entryPerimeter=0;" edge="1" parent="1" source="vP64vqgb3mRYIn6DXvBJ-76" target="vP64vqgb3mRYIn6DXvBJ-78">
          <mxGeometry x="-0.0354" y="-19" width="50" height="50" relative="1" as="geometry">
            <mxPoint x="490" y="850" as="sourcePoint" />
            <mxPoint x="240" y="850" as="targetPoint" />
            <mxPoint x="1" as="offset" />
          </mxGeometry>
        </mxCell>
        <mxCell id="vP64vqgb3mRYIn6DXvBJ-82" value="" style="endArrow=classic;html=1;exitX=0.5;exitY=1;exitDx=0;exitDy=0;exitPerimeter=0;entryX=0.605;entryY=-0.006;entryDx=0;entryDy=0;entryPerimeter=0;" edge="1" parent="1" source="vP64vqgb3mRYIn6DXvBJ-76" target="vP64vqgb3mRYIn6DXvBJ-79">
          <mxGeometry width="50" height="50" relative="1" as="geometry">
            <mxPoint x="490" y="850" as="sourcePoint" />
            <mxPoint x="540" y="800" as="targetPoint" />
          </mxGeometry>
        </mxCell>
        <mxCell id="vP64vqgb3mRYIn6DXvBJ-92" value="&lt;font color=&quot;#000000&quot;&gt;voiture, autonome&lt;/font&gt;" style="edgeLabel;html=1;align=center;verticalAlign=middle;resizable=0;points=[];fontColor=#FFF7F7;" vertex="1" connectable="0" parent="vP64vqgb3mRYIn6DXvBJ-82">
          <mxGeometry x="-0.3024" y="3" relative="1" as="geometry">
            <mxPoint as="offset" />
          </mxGeometry>
        </mxCell>
        <mxCell id="vP64vqgb3mRYIn6DXvBJ-83" value="" style="endArrow=classic;html=1;exitX=1;exitY=0.5;exitDx=0;exitDy=0;exitPerimeter=0;entryX=0.095;entryY=0.5;entryDx=0;entryDy=0;entryPerimeter=0;" edge="1" parent="1" source="vP64vqgb3mRYIn6DXvBJ-76" target="vP64vqgb3mRYIn6DXvBJ-80">
          <mxGeometry width="50" height="50" relative="1" as="geometry">
            <mxPoint x="490" y="850" as="sourcePoint" />
            <mxPoint x="540" y="800" as="targetPoint" />
          </mxGeometry>
        </mxCell>
        <mxCell id="vP64vqgb3mRYIn6DXvBJ-95" value="&lt;font color=&quot;#000000&quot;&gt;toi, vous, même&lt;/font&gt;" style="edgeLabel;html=1;align=center;verticalAlign=middle;resizable=0;points=[];fontColor=#FFF7F7;" vertex="1" connectable="0" parent="vP64vqgb3mRYIn6DXvBJ-83">
          <mxGeometry x="-0.3383" y="3" relative="1" as="geometry">
            <mxPoint as="offset" />
          </mxGeometry>
        </mxCell>
        <mxCell id="vP64vqgb3mRYIn6DXvBJ-98" style="edgeStyle=orthogonalEdgeStyle;rounded=0;orthogonalLoop=1;jettySize=auto;html=1;entryX=0.5;entryY=0;entryDx=0;entryDy=0;entryPerimeter=0;fontColor=#FFF7F7;" edge="1" parent="1" source="vP64vqgb3mRYIn6DXvBJ-84" target="vP64vqgb3mRYIn6DXvBJ-57">
          <mxGeometry relative="1" as="geometry" />
        </mxCell>
        <mxCell id="vP64vqgb3mRYIn6DXvBJ-84" value="END" style="ellipse;whiteSpace=wrap;html=1;fillColor=#000000;fontColor=#FFF7F7;" vertex="1" parent="1">
          <mxGeometry x="1027" y="90" width="60" height="60" as="geometry" />
        </mxCell>
        <mxCell id="vP64vqgb3mRYIn6DXvBJ-86" value="END" style="ellipse;whiteSpace=wrap;html=1;fillColor=#000000;fontColor=#FFF7F7;" vertex="1" parent="1">
          <mxGeometry x="750" y="240" width="60" height="60" as="geometry" />
        </mxCell>
        <mxCell id="vP64vqgb3mRYIn6DXvBJ-87" value="END" style="ellipse;whiteSpace=wrap;html=1;fillColor=#000000;fontColor=#FFF7F7;" vertex="1" parent="1">
          <mxGeometry x="765" y="480" width="60" height="60" as="geometry" />
        </mxCell>
        <mxCell id="vP64vqgb3mRYIn6DXvBJ-88" value="END" style="ellipse;whiteSpace=wrap;html=1;fillColor=#000000;fontColor=#FFF7F7;" vertex="1" parent="1">
          <mxGeometry x="200" y="610" width="60" height="60" as="geometry" />
        </mxCell>
        <mxCell id="vP64vqgb3mRYIn6DXvBJ-89" value="" style="endArrow=classic;html=1;fontColor=#FFF7F7;exitX=0.435;exitY=1.031;exitDx=0;exitDy=0;exitPerimeter=0;entryX=0.5;entryY=0;entryDx=0;entryDy=0;" edge="1" parent="1" source="vP64vqgb3mRYIn6DXvBJ-73" target="vP64vqgb3mRYIn6DXvBJ-88">
          <mxGeometry width="50" height="50" relative="1" as="geometry">
            <mxPoint x="590" y="500" as="sourcePoint" />
            <mxPoint x="220" y="620" as="targetPoint" />
          </mxGeometry>
        </mxCell>
        <mxCell id="vP64vqgb3mRYIn6DXvBJ-90" value="END" style="ellipse;whiteSpace=wrap;html=1;fillColor=#000000;fontColor=#FFF7F7;" vertex="1" parent="1">
          <mxGeometry x="180" y="920" width="60" height="60" as="geometry" />
        </mxCell>
        <mxCell id="vP64vqgb3mRYIn6DXvBJ-91" value="" style="endArrow=classic;html=1;fontColor=#FFF7F7;exitX=0.438;exitY=1.035;exitDx=0;exitDy=0;exitPerimeter=0;entryX=0.5;entryY=0;entryDx=0;entryDy=0;" edge="1" parent="1" source="vP64vqgb3mRYIn6DXvBJ-78" target="vP64vqgb3mRYIn6DXvBJ-90">
          <mxGeometry width="50" height="50" relative="1" as="geometry">
            <mxPoint x="-30" y="850" as="sourcePoint" />
            <mxPoint x="20" y="800" as="targetPoint" />
          </mxGeometry>
        </mxCell>
        <mxCell id="vP64vqgb3mRYIn6DXvBJ-94" value="END" style="ellipse;whiteSpace=wrap;html=1;fillColor=#000000;fontColor=#FFF7F7;" vertex="1" parent="1">
          <mxGeometry x="481.5" y="1110" width="60" height="60" as="geometry" />
        </mxCell>
        <mxCell id="vP64vqgb3mRYIn6DXvBJ-96" value="END" style="ellipse;whiteSpace=wrap;html=1;fillColor=#000000;fontColor=#FFF7F7;" vertex="1" parent="1">
          <mxGeometry x="917.5" y="910" width="60" height="60" as="geometry" />
        </mxCell>
        <mxCell id="vP64vqgb3mRYIn6DXvBJ-100" style="edgeStyle=orthogonalEdgeStyle;rounded=0;orthogonalLoop=1;jettySize=auto;html=1;fontColor=#000000;" edge="1" parent="1" source="vP64vqgb3mRYIn6DXvBJ-99" target="3">
          <mxGeometry relative="1" as="geometry" />
        </mxCell>
        <mxCell id="vP64vqgb3mRYIn6DXvBJ-99" value="START" style="ellipse;whiteSpace=wrap;html=1;fillColor=#FFFCFC;" vertex="1" parent="1">
          <mxGeometry x="589" y="20" width="60" height="60" as="geometry" />
        </mxCell>
      </root>
    </mxGraphModel>
  </diagram>
</mxfile>
